"Service","Name","Username","Password","Hostname","Port","Security"
"SMTP","Ward Kuhn","ward.kuhn8@ethereal.email","gqVhAJ5z6vV6Kmmu1X","smtp.ethereal.email",587,"STARTTLS"
"IMAP","Ward Kuhn","ward.kuhn8@ethereal.email","gqVhAJ5z6vV6Kmmu1X","imap.ethereal.email",993,"TLS"
"POP3","Ward Kuhn","ward.kuhn8@ethereal.email","gqVhAJ5z6vV6Kmmu1X","pop3.ethereal.email",995,"TLS"